Label 'subpoint_map':
[0]: 7 (1)
[0]: 3 (0)
[0]: 4 (0)
[0]: 0 (102)
[0]: 6 (101)
[0]: 8 (101)
[0]: 1 (-102)
[0]: 9 (-101)
[0]: 10 (-101)
Label 'subpoint_map split':
[0]: 4 (100)
[0]: 5 (100)
[0]: 7 (-100)
[0]: 8 (-100)
[0]: 10 (101)
[0]: 14 (-101)
Label 'cohesive':
[1]: 1 (1)
[1]: 11 (1)
[1]: 12 (1)
Discrete System with 1 fields
    cell total dim 6 total comp 2
  Field displacement FEM 2 components (implicit) (Nq 4 Nqc 1) 1-jet
    PetscFE Object: displacement (displacement_) 1 MPI processes
      type: basic
      Basic Finite Element in 2 dimensions with 2 components
      PetscSpace Object: displacement (displacement_) 1 MPI processes
        type: sum
        Space in 2 variables with 2 components, size 6
        Sum space of 2 concatenated subspaces (all identical)
          PetscSpace Object: sum component (displacement_sumcomp_) 1 MPI processes
            type: poly
            Space in 2 variables with 1 components, size 3
            Polynomial space of degree 1
      PetscDualSpace Object: displacement (displacement_) 1 MPI processes
        type: lagrange
        Dual space with 2 components, size 6
        Continuous Lagrange dual space
        Quadrature of order 3 on 4 points (dim 2)
  Weak Form System with 1 fields
    boundary_residual_f0
      (material, 1) (0, 0)
      (material, 2) (0, 0)
    boundary_jacobian_g0
      (material, 1) (1, 0)
      (material, 2) (1, 0)
