DM Object: box 1 MPI processes
  type: plex
box in 2 dimensions:
  Number of 0-cells per rank: 4
  Number of 1-cells per rank: 5
  Number of 2-cells per rank: 2
Labels:
  celltype: 3 strata with value/size (0 (4), 3 (2), 1 (5))
  depth: 3 strata with value/size (0 (4), 1 (5), 2 (2))
  Face Sets: 1 strata with value/size (1 (4))
DM Object: Particles 1 MPI processes
  type: swarm
Particles in 2 dimensions:
  Number of particles per rank: 10
L2 projection mass:     1.9827595802e+00, x-momentum:     2.0080695584e-01, energy:     7.4838693114e-01.
L2 projection mass:     1.9827595802e+00, x-momentum:     2.0080695584e-01, energy:     7.4838693114e-01.
L2 projection mass:     1.9827595802e+00, x-momentum:     2.0080695584e-01, energy:     7.4838693114e-01.
