DM Object: box 1 MPI processes
  type: plex
box in 3 dimensions:
  Number of 0-cells per rank: 8
  Number of 1-cells per rank: 12
  Number of 2-cells per rank: 6
  Number of 3-cells per rank: 1
Labels:
  marker: 1 strata with value/size (1 (18))
  Face Sets: 6 strata with value/size (6 (1), 5 (1), 3 (1), 4 (1), 1 (1), 2 (1))
  depth: 4 strata with value/size (0 (8), 1 (12), 2 (6), 3 (1))
  celltype: 4 strata with value/size (7 (1), 0 (8), 4 (6), 1 (12))
Time     Step Part     Energy Mod Energy
0.000000    0    0  3936.3929  3936.3929
0.000000    0    1  2613.4802  2613.4802
0.000500   50    0  3936.3929  3936.3123
0.000500   50    1  2613.4802  2613.4267
0.001000  100    0  3936.3929  3936.2321
0.001000  100    1  2613.4802  2613.3734
p0 error [6.5e-13 1.8e-15] sol [1.383548 -5.674762] exact [1.383548 -5.674762] energy/exact energy 3936.39 / 3936.39 (0.0000000001%)
p1 error [5.3e-13 4.4e-15] sol [1.127339 -4.623896] exact [1.127339 -4.623896] energy/exact energy 2613.48 / 2613.48 (0.0000000001%)
Time     Step Part     Energy Mod Energy
0.000000    0    0  3936.3929  3936.3929
0.000000    0    1  2613.4802  2613.4802
0.000250   50    0  3936.3929  3936.3727
0.000250   50    1  2613.4802  2613.4668
0.000500  100    0  3936.3929  3936.3526
0.000500  100    1  2613.4802  2613.4535
0.000750  150    0  3936.3929  3936.3325
0.000750  150    1  2613.4802  2613.4401
0.001000  200    0  3936.3929  3936.3125
0.001000  200    1  2613.4802  2613.4268
p0 error [8e-14 1.2e-14] sol [1.383548 -5.674762] exact [1.383548 -5.674762] energy/exact energy 3936.39 / 3936.39 (0.0000000000%)
p1 error [6.6e-14 1.1e-14] sol [1.127339 -4.623896] exact [1.127339 -4.623896] energy/exact energy 2613.48 / 2613.48 (0.0000000000%)
Time     Step Part     Energy Mod Energy
0.000000    0    0  3936.3929  3936.3929
0.000000    0    1  2613.4802  2613.4802
0.000125   50    0  3936.3929  3936.3878
0.000125   50    1  2613.4802  2613.4769
0.000250  100    0  3936.3929  3936.3828
0.000250  100    1  2613.4802  2613.4735
0.000375  150    0  3936.3929  3936.3778
0.000375  150    1  2613.4802  2613.4702
0.000500  200    0  3936.3929  3936.3727
0.000500  200    1  2613.4802  2613.4668
0.000625  250    0  3936.3929  3936.3677
0.000625  250    1  2613.4802  2613.4635
0.000750  300    0  3936.3929  3936.3627
0.000750  300    1  2613.4802  2613.4602
0.000875  350    0  3936.3929  3936.3577
0.000875  350    1  2613.4802  2613.4568
0.001000  400    0  3936.3929  3936.3527
0.001000  400    1  2613.4802  2613.4535
p0 error [9.5e-15 9.8e-15] sol [1.383548 -5.674762] exact [1.383548 -5.674762] energy/exact energy 3936.39 / 3936.39 (0.0000000000%)
p1 error [6.4e-15 1.9e-14] sol [1.127339 -4.623896] exact [1.127339 -4.623896] energy/exact energy 2613.48 / 2613.48 (0.0000000000%)
L_2 convergence rate: 2.4
Time     Step Part     Energy Mod Energy
0.000000    0    0  3936.3929  3936.3929
0.000000    0    1  2613.4802  2613.4802
0.000500   50    0  3936.3929  3936.3123
0.000500   50    1  2613.4802  2613.4267
0.001000  100    0  3936.3929  3936.2321
0.001000  100    1  2613.4802  2613.3734
